/home/sardorweyx/IdeaProjects/chat-app/src/main/java/uz/weyx/chatapp/ChatAppApplication.java
/home/sardorweyx/IdeaProjects/chat-app/src/main/java/uz/weyx/chatapp/entity/Ext.java
/home/sardorweyx/IdeaProjects/chat-app/src/main/java/uz/weyx/chatapp/service/UserService.java
/home/sardorweyx/IdeaProjects/chat-app/src/main/java/uz/weyx/chatapp/repository/UserRepository.java
/home/sardorweyx/IdeaProjects/chat-app/src/main/java/uz/weyx/chatapp/controller/ChatController.java
/home/sardorweyx/IdeaProjects/chat-app/src/main/java/uz/weyx/chatapp/entity/Message.java
/home/sardorweyx/IdeaProjects/chat-app/src/main/java/uz/weyx/chatapp/service/MessageService.java
/home/sardorweyx/IdeaProjects/chat-app/src/main/java/uz/weyx/chatapp/service/ChatService.java
/home/sardorweyx/IdeaProjects/chat-app/src/main/java/uz/weyx/chatapp/service/payload/UrlDto.java
/home/sardorweyx/IdeaProjects/chat-app/src/main/java/uz/weyx/chatapp/entity/Chat.java
/home/sardorweyx/IdeaProjects/chat-app/src/main/java/uz/weyx/chatapp/repository/MessageRepository.java
/home/sardorweyx/IdeaProjects/chat-app/src/main/java/uz/weyx/chatapp/service/minio/FileUploader.java
/home/sardorweyx/IdeaProjects/chat-app/src/main/java/uz/weyx/chatapp/controller/UserController.java
/home/sardorweyx/IdeaProjects/chat-app/src/main/java/uz/weyx/chatapp/controller/MessageController.java
/home/sardorweyx/IdeaProjects/chat-app/src/main/java/uz/weyx/chatapp/service/payload/UserDto.java
/home/sardorweyx/IdeaProjects/chat-app/src/main/java/uz/weyx/chatapp/entity/User.java
/home/sardorweyx/IdeaProjects/chat-app/src/main/java/uz/weyx/chatapp/repository/ChatRepository.java
/home/sardorweyx/IdeaProjects/chat-app/src/main/java/uz/weyx/chatapp/service/payload/ChatDto.java
/home/sardorweyx/IdeaProjects/chat-app/src/main/java/uz/weyx/chatapp/entity/MessageType.java
/home/sardorweyx/IdeaProjects/chat-app/src/main/java/uz/weyx/chatapp/service/payload/MessageDto.java
